BASE;ANO;UO_SALDO;FONTE_COD; VL_SALDO 
SALDO;2022;0;11;266.238.008,91
SALDO;2022;0;13;92.592.333,05
SALDO;2022;0;23;367.040.105,16
SALDO;2022;0;26;12.339.111,85
SALDO;2022;1401;27;5.341.358,00
SALDO;2023;DEMAIS;27;-44.421.923,00
SALDO;2022;0;42;55.770.141,48
SALDO;2022;0;43;7.854.881,67
SALDO;2022;0;44;43.117.119,24
SALDO;2022;2091;52;27.675.151,44
SALDO;2022;2371;60;7.909.229,96
SALDO;2022;0;71;657.285.664,92
SALDO;2022;0;72;110.929.612,01
SALDO;2022;0;78;7.353.024,00
SALDO;2022;2371;91;6.077.993,31
SALDO;2022;2241;91;4.821.573,62
SALDO;2022;0;92;456.743.615,21
SALDO;2022;0;95;589.225.271,99
SALDO;2022;2091;60;36.471.742,09
